Exploratory Data Analysis, Evaluation, and Visualization
…
Lets find the most suitable agency for analysis on – we’re looking for something with a lot of data, and a lot of distinct subject

Lets explore the 311 agency

targets::tar_read('extract__311raw') %>% 
  filter(agency_responsible == 'Philly311 Contact Center') %>% 
  mutate(totalCalls = n()) %>% 
  group_by(subject) %>% mutate(subjectCount = n()) %>% 
  ungroup() %>% 
  mutate(subjectPercentOfTotal = subjectCount / totalCalls) %>% 
  select(subject,subjectPercentOfTotal,subjectCount,totalCalls) %>% 
  arrange(-subjectCount) %>% 
  unique ()

# A tibble: 1,180 × 4
   subject                         subjectPercentOfTotal subjectCount totalCalls
   <chr>                                           <dbl>        <int>      <int>
 1 How do I log: Wrong-Number, No…                0.0694        11091     159899
 2 How do I contact Licenses and …                0.0374         5984     159899
 3 How do I obtain/renew a Housin…                0.0274         4380     159899
 4 What is the phone number to my…                0.0237         3797     159899
 5 How do I make an Appointment a…                0.0237         3789     159899
 6 How do I contact the Departmen…                0.0213         3404     159899
 7 How do I file a Mail-In Ballot?                0.0197         3154     159899
 8 How do I document a transfer t…                0.0178         2841     159899
 9 What type of trash can I put o…                0.0171         2727     159899
10 What day is trash/recycling co…                0.0140         2232     159899
# ℹ 1,170 more rows
…
